Joseph T Powers
…
ds_mpg

## # A tibble: 4 x 2
##     cyl data              
##   <int> <list>            
## 1     4 <tibble [81 × 10]>
## 2     5 <tibble [4 × 10]> 
## 3     6 <tibble [79 × 10]>
## 4     8 <tibble [70 × 10]>

Each element of the list column data contains all the data associated with that cylinder count. Let’s view the first element.

ds_mpg$data[[1]]

## # A tibble: 81 x 10
##    manufacturer model      displ  year trans drv     cty   hwy fl    class
##    <chr>        <chr>      <dbl> <int> <chr> <chr> <int> <int> <chr> <chr>
##  1 audi         a4           1.8  1999 auto… f        18    29 p     comp…
##  2 audi         a4           1.8  1999 manu… f        21    29 p     comp…
##  3 audi         a4           2    2008 manu… f        20    31 p     comp…
##  4 audi         a4           2    2008 auto… f        21    30 p     comp…
##  5 audi         a4 quattro   1.8  1999 manu… 4        18    26 p     comp…
##  6 audi         a4 quattro   1.8  1999 auto… 4        16    25 p     comp…
##  7 audi         a4 quattro   2    2008 manu… 4        20    28 p     comp…
##  8 audi         a4 quattro   2    2008 auto… 4        19    27 p     comp…
##  9 chevrolet    malibu       2.4  1999 auto… f        19    27 r     mids…
## 10 chevrolet    malibu       2.4  2008 auto… f        22    30 r     mids…
## # ... with 71 more rows
…
