…
It’s labelled <list>, indicating that it is a “list column”. When I first learned about list columns I thought, “Neat, but when will I ever use these?” In the year since they’ve become my life-line for iterative programming challenges. They’ve become a life line because they are so versatile in what they can store. Virtually any data object can be saved as a list. So list columns can store models, data frames, plots, etc. And the reason this versatility is so useful is that it keeps objects aligned, which is essential for iterative programming.

library(tidyverse)
library(magrittr)
library(modelr) 

You’re probably already familiar with the numeric and character vectors that populate most dataframes.

mpg

## # A tibble: 234 x 11
##    manufacturer model    displ  year   cyl trans   drv     cty   hwy fl   
##    <chr>        <chr>    <dbl> <int> <int> <chr>   <chr> <int> <int> <chr>
##  1 audi         a4         1.8  1999     4 auto(l… f        18    29 p    
##  2 audi         a4         1.8  1999     4 manual… f        21    29 p    
##  3 audi         a4         2    2008     4 manual… f        20    31 p    
##  4 audi         a4         2    2008     4 auto(a… f        21    30 p    
##  5 audi         a4         2.8  1999     6 auto(l… f        16    26 p    
##  6 audi         a4         2.8  1999     6 manual… f        18    26 p    
##  7 audi         a4         3.1  2008     6 auto(a… f        18    27 p    
##  8 audi         a4 quat…   1.8  1999     4 manual… 4        18    26 p    
##  9 audi         a4 quat…   1.8  1999     4 auto(l… 4        16    25 p    
## 10 audi         a4 quat…   2    2008     4 manual… 4        20    28 p    
## # ... with 224 more rows, and 1 more variable: class <chr>
…
ds_mpg

## # A tibble: 4 x 2
##     cyl data              
##   <int> <list>            
## 1     4 <tibble [81 × 10]>
## 2     5 <tibble [4 × 10]> 
## 3     6 <tibble [79 × 10]>
## 4     8 <tibble [70 × 10]>

All the data from rows with 4 cylinders has been saved in the first element of the list column. Let’s view it.

ds_mpg$data[[1]]

## # A tibble: 81 x 10
##    manufacturer model      displ  year trans drv     cty   hwy fl    class
##    <chr>        <chr>      <dbl> <int> <chr> <chr> <int> <int> <chr> <chr>
##  1 audi         a4           1.8  1999 auto… f        18    29 p     comp…
##  2 audi         a4           1.8  1999 manu… f        21    29 p     comp…
##  3 audi         a4           2    2008 manu… f        20    31 p     comp…
##  4 audi         a4           2    2008 auto… f        21    30 p     comp…
##  5 audi         a4 quattro   1.8  1999 manu… 4        18    26 p     comp…
##  6 audi         a4 quattro   1.8  1999 auto… 4        16    25 p     comp…
##  7 audi         a4 quattro   2    2008 manu… 4        20    28 p     comp…
##  8 audi         a4 quattro   2    2008 auto… 4        19    27 p     comp…
##  9 chevrolet    malibu       2.4  1999 auto… f        19    27 r     mids…
## 10 chevrolet    malibu       2.4  2008 auto… f        22    30 r     mids…
## # ... with 71 more rows
…
